<svg width="57" height="59" viewBox="0 0 57 59" fill="none" xmlns="http://www.w3.org/2000/svg">
<rect width="57" height="57" rx="16.8" fill="url(#paint0_linear_4_2299)"/>
<g opacity="0.25" filter="url(#filter0_f_4_2299)">
<rect x="8.5874" y="28.5" width="38.8297" height="24.2686" rx="12.1343" fill="url(#paint1_linear_4_2299)"/>
</g>
<rect x="7.40991" y="7.41" width="42.0655" height="42.0655" rx="16.8" fill="url(#paint2_linear_4_2299)"/>
<g clip-path="url(#clip0_4_2299)" filter="url(#filter1_i_4_2299)">
<g filter="url(#filter2_i_4_2299)">
<path d="M34.108 30.0666L34.8109 25.5298H30.4812V22.5809C30.4812 21.3404 31.0857 20.1282 33.0186 20.1282H35.0147V16.2648C33.8523 16.0765 32.6777 15.9746 31.5004 15.96C27.9368 15.96 25.6103 18.1362 25.6103 22.0705V25.5298H21.6602V30.0666H25.6103V41.04H30.4812V30.0666H34.108Z" fill="white"/>
</g>
</g>
<defs>
<filter id="filter0_f_4_2299" x="3.1274" y="23.04" width="49.7496" height="35.1886" filterUnits="userSpaceOnUse" color-interpolation-filters="sRGB">
<feFlood flood-opacity="0" result="BackgroundImageFix"/>
<feBlend mode="normal" in="SourceGraphic" in2="BackgroundImageFix" result="shape"/>
<feGaussianBlur stdDeviation="2.73" result="effect1_foregroundBlur_4_2299"/>
</filter>
<filter id="filter1_i_4_2299" x="15.3901" y="15.39" width="25.6499" height="25.93" filterUnits="userSpaceOnUse" color-interpolation-filters="sRGB">
<feFlood flood-opacity="0" result="BackgroundImageFix"/>
<feBlend mode="normal" in="SourceGraphic" in2="BackgroundImageFix" result="shape"/>
<feColorMatrix in="SourceAlpha" type="matrix" values="0 0 0 0 0 0 0 0 0 0 0 0 0 0 0 0 0 0 127 0" result="hardAlpha"/>
<feOffset dy="0.28"/>
<feGaussianBlur stdDeviation="0.7"/>
<feComposite in2="hardAlpha" operator="arithmetic" k2="-1" k3="1"/>
<feColorMatrix type="matrix" values="0 0 0 0 0 0 0 0 0 0 0 0 0 0 0 0 0 0 0.1 0"/>
<feBlend mode="normal" in2="shape" result="effect1_innerShadow_4_2299"/>
</filter>
<filter id="filter2_i_4_2299" x="21.6602" y="15.96" width="13.3545" height="25.36" filterUnits="userSpaceOnUse" color-interpolation-filters="sRGB">
<feFlood flood-opacity="0" result="BackgroundImageFix"/>
<feBlend mode="normal" in="SourceGraphic" in2="BackgroundImageFix" result="shape"/>
<feColorMatrix in="SourceAlpha" type="matrix" values="0 0 0 0 0 0 0 0 0 0 0 0 0 0 0 0 0 0 127 0" result="hardAlpha"/>
<feOffset dy="0.28"/>
<feGaussianBlur stdDeviation="0.56"/>
<feComposite in2="hardAlpha" operator="arithmetic" k2="-1" k3="1"/>
<feColorMatrix type="matrix" values="0 0 0 0 0 0 0 0 0 0 0 0 0 0 0 0 0 0 0.2 0"/>
<feBlend mode="normal" in2="shape" result="effect1_innerShadow_4_2299"/>
</filter>
<linearGradient id="paint0_linear_4_2299" x1="4.79148" y1="3.73362" x2="47.1059" y2="57" gradientUnits="userSpaceOnUse">
<stop stop-color="#FBFBFC"/>
<stop offset="1" stop-color="#DBDDE8"/>
</linearGradient>
<linearGradient id="paint1_linear_4_2299" x1="28.0022" y1="52.0595" x2="28.0022" y2="28.5" gradientUnits="userSpaceOnUse">
<stop stop-color="#0062E0"/>
<stop offset="1" stop-color="#19AFFF"/>
</linearGradient>
<linearGradient id="paint2_linear_4_2299" x1="28.4427" y1="48.2464" x2="28.4427" y2="7.41" gradientUnits="userSpaceOnUse">
<stop stop-color="#0062E0"/>
<stop offset="1" stop-color="#19AFFF"/>
</linearGradient>
<clipPath id="clip0_4_2299">
<rect width="25.65" height="25.65" fill="white" transform="translate(15.3901 15.39)"/>
</clipPath>
</defs>
</svg>
