<svg width="100" height="100" viewBox="0 0 100 100" fill="none" xmlns="http://www.w3.org/2000/svg">
<rect width="100" height="100" rx="30" fill="url(#paint0_linear_4_89)"/>
<g opacity="0.25" filter="url(#filter0_f_4_89)">
<rect x="15.0655" y="50" width="68.1223" height="42.5764" rx="21.2882" fill="url(#paint1_linear_4_89)"/>
</g>
<rect x="13" y="12.9999" width="73.7991" height="73.7991" rx="30" fill="url(#paint2_linear_4_89)"/>
<g filter="url(#filter1_i_4_89)">
<path d="M69.1664 40.3828C68.7082 38.6603 67.3528 37.3014 65.6284 36.8357C62.5103 36 50 36 50 36C50 36 37.496 36 34.3716 36.8357C32.6535 37.2951 31.2981 38.6539 30.8336 40.3828C30 43.5088 30 50.0351 30 50.0351C30 50.0351 30 56.5614 30.8336 59.6874C31.2918 61.4099 32.6472 62.7687 34.3716 63.2344C37.496 64.0702 50 64.0702 50 64.0702C50 64.0702 62.5103 64.0702 65.6284 63.2344C67.3465 62.7751 68.7019 61.4163 69.1664 59.6874C70 56.5614 70 50.0351 70 50.0351C70 50.0351 70 43.5088 69.1664 40.3828Z" fill="white"/>
<path d="M46.0038 56.051L56.3952 50.0351L46.0038 44.0191V56.051Z" fill="#FF0000"/>
</g>
<defs>
<filter id="filter0_f_4_89" x="9.60551" y="44.54" width="79.0423" height="53.4964" filterUnits="userSpaceOnUse" color-interpolation-filters="sRGB">
<feFlood flood-opacity="0" result="BackgroundImageFix"/>
<feBlend mode="normal" in="SourceGraphic" in2="BackgroundImageFix" result="shape"/>
<feGaussianBlur stdDeviation="2.73" result="effect1_foregroundBlur_4_89"/>
</filter>
<filter id="filter1_i_4_89" x="27" y="28" width="45" height="45.5" filterUnits="userSpaceOnUse" color-interpolation-filters="sRGB">
<feFlood flood-opacity="0" result="BackgroundImageFix"/>
<feBlend mode="normal" in="SourceGraphic" in2="BackgroundImageFix" result="shape"/>
<feColorMatrix in="SourceAlpha" type="matrix" values="0 0 0 0 0 0 0 0 0 0 0 0 0 0 0 0 0 0 127 0" result="hardAlpha"/>
<feOffset dy="0.5"/>
<feGaussianBlur stdDeviation="1.25"/>
<feComposite in2="hardAlpha" operator="arithmetic" k2="-1" k3="1"/>
<feColorMatrix type="matrix" values="0 0 0 0 0 0 0 0 0 0 0 0 0 0 0 0 0 0 0.1 0"/>
<feBlend mode="normal" in2="shape" result="effect1_innerShadow_4_89"/>
</filter>
<linearGradient id="paint0_linear_4_89" x1="8.40611" y1="6.55022" x2="82.6419" y2="100" gradientUnits="userSpaceOnUse">
<stop stop-color="#FBFBFC"/>
<stop offset="1" stop-color="#DBDDE8"/>
</linearGradient>
<linearGradient id="paint1_linear_4_89" x1="53.8347" y1="93.8462" x2="39.9491" y2="44.9043" gradientUnits="userSpaceOnUse">
<stop stop-color="#DB0505"/>
<stop offset="1" stop-color="#FF0000"/>
</linearGradient>
<linearGradient id="paint2_linear_4_89" x1="55" y1="88.9999" x2="20.5" y2="12.9999" gradientUnits="userSpaceOnUse">
<stop stop-color="#DB0505"/>
<stop offset="1" stop-color="#FF0000"/>
</linearGradient>
</defs>
</svg>
