<svg width="41" height="43" viewBox="0 0 41 43" fill="none" xmlns="http://www.w3.org/2000/svg">
<rect x="0.772949" width="39.6479" height="39.6479" rx="11.8944" fill="url(#paint0_linear_4_3111)"/>
<g opacity="0.25" filter="url(#filter0_f_4_3111)">
<rect x="6.74609" y="19.824" width="27.0091" height="16.8807" rx="8.44034" fill="url(#paint1_linear_4_3111)"/>
</g>
<rect x="5.92725" y="5.15418" width="29.2598" height="29.2598" rx="11.8944" fill="url(#paint2_linear_4_3111)"/>
<g filter="url(#filter1_i_4_3111)">
<path fill-rule="evenodd" clip-rule="evenodd" d="M23.849 17.6251C24.9096 18.3797 26.1798 18.7829 27.4811 18.7781V16.1968C27.2253 16.1975 26.9701 16.1701 26.7203 16.115V18.1715C25.416 18.1738 24.144 17.7659 23.0839 17.0056V22.3144C23.0807 23.1856 22.842 24.0396 22.3931 24.786C21.9443 25.5323 21.302 26.1432 20.5344 26.5538C19.7668 26.9644 18.9024 27.1595 18.033 27.1183C17.1636 27.0771 16.3216 26.8011 15.5962 26.3197C16.2672 26.9992 17.1245 27.4642 18.0597 27.6557C18.9949 27.8471 19.9658 27.7566 20.8495 27.3954C21.7331 27.0342 22.4899 26.4187 23.0239 25.6268C23.5578 24.8349 23.845 23.9022 23.849 22.9469V17.6251ZM24.7903 14.9922C24.251 14.407 23.92 13.6598 23.849 12.8669V12.5313H23.1269C23.2161 13.0354 23.4104 13.5149 23.697 13.9389C23.9836 14.3629 24.3561 14.7217 24.7903 14.9922ZM17.2682 24.2762C17.018 23.9486 16.8646 23.5573 16.8256 23.1468C16.7865 22.7362 16.8634 22.323 17.0475 21.954C17.2316 21.5851 17.5155 21.2753 17.8668 21.0599C18.2182 20.8445 18.6229 20.7321 19.0349 20.7355C19.2623 20.7355 19.4885 20.7703 19.7054 20.8388V18.1715C19.4518 18.1378 19.1961 18.1235 18.9403 18.1284V20.2021C18.4121 20.035 17.8404 20.073 17.3389 20.3085C16.8374 20.5441 16.4429 20.96 16.2338 21.4734C16.0247 21.9869 16.0163 22.5603 16.2104 23.0796C16.4044 23.5989 16.7867 24.0261 17.2811 24.2762H17.2682Z" fill="#EE1D52"/>
<path fill-rule="evenodd" clip-rule="evenodd" d="M23.0834 16.9884C24.1436 17.7487 25.4156 18.1566 26.7198 18.1542V16.0978C25.9767 15.9406 25.3017 15.5538 24.7899 14.9922C24.3556 14.7217 23.9831 14.3629 23.6965 13.9389C23.4099 13.5149 23.2157 13.0354 23.1264 12.5313H21.2265V22.9468C21.2248 23.4079 21.0788 23.8568 20.8091 24.2305C20.5394 24.6043 20.1596 24.8841 19.7229 25.0308C19.2862 25.1774 18.8146 25.1835 18.3742 25.0482C17.9339 24.9128 17.547 24.6429 17.2678 24.2762C16.8253 24.0527 16.4709 23.6866 16.2618 23.2368C16.0527 22.787 16.0012 22.2798 16.1154 21.7971C16.2296 21.3144 16.503 20.8843 16.8915 20.5762C17.2799 20.268 17.7607 20.0999 18.2564 20.0988C18.4838 20.0995 18.7098 20.1344 18.9269 20.2021V18.1284C17.9889 18.151 17.0778 18.4472 16.3055 18.9807C15.5332 19.5141 14.9334 20.2617 14.5797 21.1316C14.2259 22.0015 14.1336 22.9558 14.3141 23.8774C14.4946 24.7991 14.94 25.6479 15.5957 26.3197C16.3213 26.8046 17.1646 27.0834 18.036 27.1264C18.9073 27.1694 19.774 26.975 20.5437 26.564C21.3135 26.153 21.9574 25.5407 22.4069 24.7923C22.8564 24.044 23.0946 23.1876 23.0963 22.3144L23.0834 16.9884Z" fill="white"/>
<path fill-rule="evenodd" clip-rule="evenodd" d="M26.7204 16.0976V15.5426C26.038 15.5455 25.3687 15.3546 24.7904 14.9919C25.3009 15.5552 25.9765 15.9423 26.7204 16.0976ZM23.127 12.5311C23.127 12.4321 23.0969 12.3289 23.084 12.2299V11.8944H20.462V22.3142C20.4597 22.8977 20.2263 23.4564 19.8129 23.8677C19.3995 24.2791 18.8399 24.5094 18.257 24.5083C17.9137 24.51 17.5749 24.4304 17.2683 24.276C17.5476 24.6427 17.9345 24.9126 18.3748 25.0479C18.8151 25.1833 19.2868 25.1772 19.7235 25.0305C20.1602 24.8839 20.54 24.604 20.8097 24.2303C21.0794 23.8565 21.2253 23.4076 21.2271 22.9466V12.5311H23.127ZM18.9275 18.1239V17.5345C17.8486 17.3878 16.7518 17.6112 15.816 18.1682C14.8801 18.7253 14.1603 19.5832 13.774 20.6021C13.3876 21.621 13.3575 22.7408 13.6884 23.7791C14.0193 24.8173 14.6918 25.7128 15.5963 26.3195C14.9456 25.6461 14.5049 24.7976 14.3281 23.8777C14.1513 22.9577 14.246 22.0061 14.6007 21.1391C14.9553 20.2722 15.5546 19.5274 16.3253 18.9957C17.096 18.4641 18.0047 18.1686 18.9404 18.1454L18.9275 18.1239Z" fill="#69C9D0"/>
</g>
<defs>
<filter id="filter0_f_4_3111" x="1.28609" y="14.364" width="37.9293" height="27.8007" filterUnits="userSpaceOnUse" color-interpolation-filters="sRGB">
<feFlood flood-opacity="0" result="BackgroundImageFix"/>
<feBlend mode="normal" in="SourceGraphic" in2="BackgroundImageFix" result="shape"/>
<feGaussianBlur stdDeviation="2.73" result="effect1_foregroundBlur_4_3111"/>
</filter>
<filter id="filter1_i_4_3111" x="11.478" y="10.7049" width="17.8418" height="18.3416" filterUnits="userSpaceOnUse" color-interpolation-filters="sRGB">
<feFlood flood-opacity="0" result="BackgroundImageFix"/>
<feBlend mode="normal" in="SourceGraphic" in2="BackgroundImageFix" result="shape"/>
<feColorMatrix in="SourceAlpha" type="matrix" values="0 0 0 0 0 0 0 0 0 0 0 0 0 0 0 0 0 0 127 0" result="hardAlpha"/>
<feOffset dy="0.5"/>
<feGaussianBlur stdDeviation="1.25"/>
<feComposite in2="hardAlpha" operator="arithmetic" k2="-1" k3="1"/>
<feColorMatrix type="matrix" values="0 0 0 0 0 0 0 0 0 0 0 0 0 0 0 0 0 0 0.1 0"/>
<feBlend mode="normal" in2="shape" result="effect1_innerShadow_4_3111"/>
</filter>
<linearGradient id="paint0_linear_4_3111" x1="4.1058" y1="2.59703" x2="33.5388" y2="39.6479" gradientUnits="userSpaceOnUse">
<stop stop-color="#FBFBFC"/>
<stop offset="1" stop-color="#DBDDE8"/>
</linearGradient>
<linearGradient id="paint1_linear_4_3111" x1="7.29507" y1="19.824" x2="19.1983" y2="43.668" gradientUnits="userSpaceOnUse">
<stop/>
<stop offset="1" stop-color="#323232"/>
</linearGradient>
<linearGradient id="paint2_linear_4_3111" x1="6.52197" y1="5.15418" x2="31.6984" y2="36.6743" gradientUnits="userSpaceOnUse">
<stop/>
<stop offset="1" stop-color="#323232"/>
</linearGradient>
</defs>
</svg>
