<svg width="57" height="59" viewBox="0 0 57 59" fill="none" xmlns="http://www.w3.org/2000/svg">
<rect width="57" height="57" rx="14.4" fill="url(#paint0_linear_4_2300)"/>
<g opacity="0.25" filter="url(#filter0_f_4_2300)">
<rect x="8.5874" y="28.5" width="38.8297" height="24.2686" rx="12.1343" fill="url(#paint1_linear_4_2300)"/>
</g>
<rect x="7.40991" y="7.40991" width="42.0655" height="42.0655" rx="14.4" fill="url(#paint2_linear_4_2300)"/>
<g clip-path="url(#clip0_4_2300)" filter="url(#filter1_i_4_2300)">
<path d="M40.9258 20.2123C40.0961 20.5696 39.2238 20.8185 38.3305 20.9527C38.7482 20.8811 39.3627 20.1287 39.6073 19.8241C39.9789 19.3647 40.2621 18.8403 40.4426 18.2775C40.4426 18.2357 40.4843 18.176 40.4426 18.1461C40.4215 18.1346 40.3979 18.1286 40.3739 18.1286C40.35 18.1286 40.3264 18.1346 40.3053 18.1461C39.3353 18.6719 38.303 19.0731 37.2328 19.3404C37.1954 19.3518 37.1557 19.3528 37.1179 19.3434C37.0801 19.3339 37.0455 19.3143 37.018 19.2867C36.9347 19.1874 36.845 19.0936 36.7495 19.006C36.313 18.6146 35.8177 18.2942 35.2818 18.0565C34.5584 17.7595 33.7771 17.6309 32.9968 17.6803C32.2396 17.7282 31.5004 17.9315 30.8251 18.2775C30.1601 18.6423 29.5756 19.1379 29.1068 19.7345C28.6137 20.3486 28.2577 21.0613 28.0627 21.8245C27.902 22.5506 27.8837 23.301 28.009 24.034C28.009 24.1594 28.009 24.1773 27.9017 24.1594C23.6478 23.5324 20.1576 22.0216 17.3057 18.7791C17.1804 18.6358 17.1148 18.6358 17.0134 18.7791C15.7724 20.6661 16.375 23.6518 17.9262 25.1268C18.135 25.3238 18.3498 25.5149 18.5765 25.6941C17.8653 25.6435 17.1715 25.4506 16.5361 25.1268C16.4168 25.0491 16.3511 25.0909 16.3452 25.2343C16.3283 25.433 16.3283 25.6327 16.3452 25.8314C16.4697 26.7836 16.8446 27.6857 17.4316 28.4453C18.0186 29.2049 18.7967 29.7948 19.6862 30.1548C19.9031 30.2477 20.129 30.3178 20.3604 30.3638C19.702 30.4935 19.0267 30.5137 18.3617 30.4235C18.2186 30.3936 18.1649 30.4712 18.2186 30.6086C19.0956 32.9972 20.9988 33.7257 22.3949 34.1318C22.5858 34.1616 22.7767 34.1616 22.9915 34.2094C22.9915 34.2094 22.9915 34.2094 22.9557 34.2452C22.544 34.9976 20.8795 35.5052 20.1158 35.7679C18.7219 36.2691 17.2358 36.4606 15.7605 36.3293C15.5278 36.2934 15.4741 36.2994 15.4145 36.3293C15.3548 36.3591 15.4145 36.4248 15.4801 36.4845C15.7784 36.6816 16.0767 36.8548 16.3869 37.022C17.3105 37.5262 18.287 37.9267 19.2984 38.2163C24.5367 39.6614 30.4313 38.5984 34.363 34.6871C37.4535 31.6178 38.5393 27.384 38.5393 23.1442C38.5393 22.983 38.7362 22.8875 38.8496 22.8039C39.6315 22.1941 40.3208 21.474 40.896 20.6661C40.9956 20.5456 41.0467 20.3923 41.0392 20.2361C41.0392 20.1466 41.0392 20.1645 40.9258 20.2123Z" fill="white"/>
</g>
<defs>
<filter id="filter0_f_4_2300" x="3.1274" y="23.04" width="49.7496" height="35.1886" filterUnits="userSpaceOnUse" color-interpolation-filters="sRGB">
<feFlood flood-opacity="0" result="BackgroundImageFix"/>
<feBlend mode="normal" in="SourceGraphic" in2="BackgroundImageFix" result="shape"/>
<feGaussianBlur stdDeviation="2.73" result="effect1_foregroundBlur_4_2300"/>
</filter>
<filter id="filter1_i_4_2300" x="15.3899" y="15.39" width="25.6499" height="26.15" filterUnits="userSpaceOnUse" color-interpolation-filters="sRGB">
<feFlood flood-opacity="0" result="BackgroundImageFix"/>
<feBlend mode="normal" in="SourceGraphic" in2="BackgroundImageFix" result="shape"/>
<feColorMatrix in="SourceAlpha" type="matrix" values="0 0 0 0 0 0 0 0 0 0 0 0 0 0 0 0 0 0 127 0" result="hardAlpha"/>
<feOffset dy="0.5"/>
<feGaussianBlur stdDeviation="1.25"/>
<feComposite in2="hardAlpha" operator="arithmetic" k2="-1" k3="1"/>
<feColorMatrix type="matrix" values="0 0 0 0 0 0 0 0 0 0 0 0 0 0 0 0 0 0 0.1 0"/>
<feBlend mode="normal" in2="shape" result="effect1_innerShadow_4_2300"/>
</filter>
<linearGradient id="paint0_linear_4_2300" x1="4.79148" y1="3.73362" x2="47.1059" y2="57" gradientUnits="userSpaceOnUse">
<stop stop-color="#FBFBFC"/>
<stop offset="1" stop-color="#DBDDE8"/>
</linearGradient>
<linearGradient id="paint1_linear_4_2300" x1="9.37663" y1="28.5" x2="26.4894" y2="62.7795" gradientUnits="userSpaceOnUse">
<stop stop-color="#00A2F4"/>
<stop offset="1" stop-color="#05ABFF"/>
</linearGradient>
<linearGradient id="paint2_linear_4_2300" x1="8.26491" y1="7.40991" x2="44.4599" y2="52.7249" gradientUnits="userSpaceOnUse">
<stop stop-color="#0CA8F7"/>
<stop offset="1" stop-color="#0096E1"/>
</linearGradient>
<clipPath id="clip0_4_2300">
<rect width="25.65" height="25.65" fill="white" transform="translate(15.3899 15.39)"/>
</clipPath>
</defs>
</svg>
