<svg width="57" height="59" viewBox="0 0 57 59" fill="none" xmlns="http://www.w3.org/2000/svg">
<rect width="57" height="57" rx="14.4" fill="url(#paint0_linear_4_2302)"/>
<g opacity="0.25" filter="url(#filter0_f_4_2302)">
<rect x="8.5874" y="28.5" width="38.8297" height="24.2686" rx="12.1343" fill="url(#paint1_linear_4_2302)"/>
</g>
<rect x="7.40991" y="7.40991" width="42.0655" height="42.0655" rx="14.4" fill="url(#paint2_linear_4_2302)"/>
<g filter="url(#filter1_i_4_2302)">
<path d="M39.4249 23.0182C39.1638 22.0364 38.3912 21.2618 37.4083 20.9964C35.631 20.52 28.5001 20.52 28.5001 20.52C28.5001 20.52 21.3728 20.52 19.5919 20.9964C18.6126 21.2582 17.84 22.0327 17.5752 23.0182C17.1001 24.8 17.1001 28.52 17.1001 28.52C17.1001 28.52 17.1001 32.24 17.5752 34.0218C17.8364 35.0036 18.609 35.7782 19.5919 36.0436C21.3728 36.52 28.5001 36.52 28.5001 36.52C28.5001 36.52 35.631 36.52 37.4083 36.0436C38.3876 35.7818 39.1602 35.0073 39.4249 34.0218C39.9001 32.24 39.9001 28.52 39.9001 28.52C39.9001 28.52 39.9001 24.8 39.4249 23.0182Z" fill="white"/>
<path d="M26.2223 31.9491L32.1453 28.52L26.2223 25.0909V31.9491Z" fill="#FF0000"/>
</g>
<defs>
<filter id="filter0_f_4_2302" x="3.1274" y="23.04" width="49.7496" height="35.1886" filterUnits="userSpaceOnUse" color-interpolation-filters="sRGB">
<feFlood flood-opacity="0" result="BackgroundImageFix"/>
<feBlend mode="normal" in="SourceGraphic" in2="BackgroundImageFix" result="shape"/>
<feGaussianBlur stdDeviation="2.73" result="effect1_foregroundBlur_4_2302"/>
</filter>
<filter id="filter1_i_4_2302" x="15.3899" y="15.96" width="25.6499" height="26.15" filterUnits="userSpaceOnUse" color-interpolation-filters="sRGB">
<feFlood flood-opacity="0" result="BackgroundImageFix"/>
<feBlend mode="normal" in="SourceGraphic" in2="BackgroundImageFix" result="shape"/>
<feColorMatrix in="SourceAlpha" type="matrix" values="0 0 0 0 0 0 0 0 0 0 0 0 0 0 0 0 0 0 127 0" result="hardAlpha"/>
<feOffset dy="0.5"/>
<feGaussianBlur stdDeviation="1.25"/>
<feComposite in2="hardAlpha" operator="arithmetic" k2="-1" k3="1"/>
<feColorMatrix type="matrix" values="0 0 0 0 0 0 0 0 0 0 0 0 0 0 0 0 0 0 0.1 0"/>
<feBlend mode="normal" in2="shape" result="effect1_innerShadow_4_2302"/>
</filter>
<linearGradient id="paint0_linear_4_2302" x1="4.79148" y1="3.73362" x2="47.1059" y2="57" gradientUnits="userSpaceOnUse">
<stop stop-color="#FBFBFC"/>
<stop offset="1" stop-color="#DBDDE8"/>
</linearGradient>
<linearGradient id="paint1_linear_4_2302" x1="30.6859" y1="53.4923" x2="22.771" y2="25.5954" gradientUnits="userSpaceOnUse">
<stop stop-color="#DB0505"/>
<stop offset="1" stop-color="#FF0000"/>
</linearGradient>
<linearGradient id="paint2_linear_4_2302" x1="31.3499" y1="50.7299" x2="11.6849" y2="7.40991" gradientUnits="userSpaceOnUse">
<stop stop-color="#DB0505"/>
<stop offset="1" stop-color="#FF0000"/>
</linearGradient>
</defs>
</svg>
